test/edsac/misc/digit_pulse_generator.vcd
$date
	Sat Aug 26 17:29:17 2017
$end
$version
	Icarus Verilog
$end
$timescale
	1s
$end
$scope module digit_pulse_generator_tb $end
$var wire 36 ! digit_pulse [35:0] $end
$var reg 1 " clk $end
$upscope $end
$enddefinitions $end
#0
$dumpvars
0"
b0 !
$end
#5
1"
#10
0"
#15
1"
#20
0"
#25
1"
#30
0"
#35
1"
#40
0"
#45
1"
#50
0"
#55
1"
#60
0"
#65
1"
#70
0"
#75
1"
#80
0"
#85
1"
#90
0"
#95
1"
#100
0"
#105
1"
#110
0"
#115
1"
#120
0"
#125
1"
#130
0"
#135
1"
#140
0"
#145
1"
#150
0"
#155
1"
#160
0"
#165
1"
#170
0"
#175
1"
#180
0"
#185
1"
#190
0"
#195
1"
#200
0"
#205
1"
#210
0"
#215
1"
#220
0"
#225
1"
#230
0"
#235
1"
#240
0"
#245
1"
#250
0"
#255
1"
#260
0"
#265
1"
#270
0"
#275
1"
#280
0"
#285
1"
#290
0"
#295
1"
#300
0"
#305
1"
#310
0"
#315
1"
#320
0"
#325
1"
#330
0"
#335
1"
#340
0"
#345
1"
#350
0"
#355
b1 !
1"
#360
b0 !
0"
#365
b10 !
1"
#370
b0 !
0"
#375
b100 !
1"
#380
b0 !
0"
#385
b1000 !
1"
#390
b0 !
0"
#395
b10000 !
1"
#400
b0 !
0"
#405
b100000 !
1"
#410
b0 !
0"
#415
b1000000 !
1"
#420
b0 !
0"
#425
b10000000 !
1"
#430
b0 !
0"
#435
b100000000 !
1"
#440
b0 !
0"
#445
b1000000000 !
1"
#450
b0 !
0"
#455
b10000000000 !
1"
#460
b0 !
0"
#465
b100000000000 !
1"
#470
b0 !
0"
#475
b1000000000000 !
1"
#480
b0 !
0"
#485
b10000000000000 !
1"
#490
b0 !
0"
#495
b100000000000000 !
1"
#500
b0 !
0"
#505
b1000000000000000 !
1"
#510
b0 !
0"
#515
b10000000000000000 !
1"
#520
b0 !
0"
#525
b100000000000000000 !
1"
#530
b0 !
0"
#535
b1000000000000000000 !
1"
#540
b0 !
0"
#545
b10000000000000000000 !
1"
#550
b0 !
0"
#555
b100000000000000000000 !
1"
#560
b0 !
0"
#565
b1000000000000000000000 !
1"
#570
b0 !
0"
#575
b10000000000000000000000 !
1"
#580
b0 !
0"
#585
b100000000000000000000000 !
1"
#590
b0 !
0"
#595
b1000000000000000000000000 !
1"
#600
b0 !
0"
#605
b10000000000000000000000000 !
1"
#610
b0 !
0"
#615
b100000000000000000000000000 !
1"
#620
b0 !
0"
#625
b1000000000000000000000000000 !
1"
#630
b0 !
0"
#635
b10000000000000000000000000000 !
1"
#640
b0 !
0"
#645
b100000000000000000000000000000 !
1"
#650
b0 !
0"
#655
b1000000000000000000000000000000 !
1"
#660
b0 !
0"
#665
b10000000000000000000000000000000 !
1"
#670
b0 !
0"
#675
b100000000000000000000000000000000 !
1"
#680
b0 !
0"
#685
b1000000000000000000000000000000000 !
1"
#690
b0 !
0"
#695
b10000000000000000000000000000000000 !
1"
#700
b0 !
0"
#705
b100000000000000000000000000000000000 !
1"
#710
b0 !
0"
#715
b1 !
1"
#720
b0 !
0"
#725
b10 !
1"
#730
b0 !
0"
#735
b100 !
1"
#740
b0 !
0"
#745
b1000 !
1"
#750
b0 !
0"
#755
b10000 !
1"
#760
b0 !
0"
#765
b100000 !
1"
#770
b0 !
0"
#775
b1000000 !
1"
#780
b0 !
0"
#785
b10000000 !
1"
#790
b0 !
0"
#795
b100000000 !
1"
#800
b0 !
0"
#805
b1000000000 !
1"
#810
b0 !
0"
#815
b10000000000 !
1"
#820
b0 !
0"
#825
b100000000000 !
1"
#830
b0 !
0"
#835
b1000000000000 !
1"
#840
b0 !
0"
#845
b10000000000000 !
1"
#850
b0 !
0"
#855
b100000000000000 !
1"
#860
b0 !
0"
#865
b1000000000000000 !
1"
#870
b0 !
0"
#875
b10000000000000000 !
1"
#880
b0 !
0"
#885
b100000000000000000 !
1"
#890
b0 !
0"
#895
b1000000000000000000 !
1"
#900
b0 !
0"
#905
b10000000000000000000 !
1"
#910
b0 !
0"
#915
b100000000000000000000 !
1"
#920
b0 !
0"
#925
b1000000000000000000000 !
1"
#930
b0 !
0"
#935
b10000000000000000000000 !
1"
#940
b0 !
0"
#945
b100000000000000000000000 !
1"
#950
b0 !
0"
#955
b1000000000000000000000000 !
1"
#960
b0 !
0"
#965
b10000000000000000000000000 !
1"
#970
b0 !
0"
#975
b100000000000000000000000000 !
1"
#980
b0 !
0"
#985
b1000000000000000000000000000 !
1"
#990
b0 !
0"
#995
b10000000000000000000000000000 !
1"
#1000
b0 !
0"
#1005
b100000000000000000000000000000 !
1"
#1010
b0 !
0"
#1015
b1000000000000000000000000000000 !
1"
#1020
b0 !
0"
#1025
b10000000000000000000000000000000 !
1"
#1030
b0 !
0"
#1035
b100000000000000000000000000000000 !
1"
#1040
b0 !
0"
#1045
b1000000000000000000000000000000000 !
1"
#1050
b0 !
0"
#1055
b10000000000000000000000000000000000 !
1"
#1060
b0 !
0"
#1065
b100000000000000000000000000000000000 !
1"
#1070
b0 !
0"
#1075
b1 !
1"
#1080
b0 !
0"
#1085
b10 !
1"
#1090
b0 !
0"
#1095
b100 !
1"
#1100
b0 !
0"
#1105
b1000 !
1"
#1110
b0 !
0"
#1115
b10000 !
1"
#1120
b0 !
0"
#1125
b100000 !
1"
#1130
b0 !
0"
#1135
b1000000 !
1"
#1140
b0 !
0"
#1145
b10000000 !
1"
#1150
b0 !
0"
#1155
b100000000 !
1"
#1160
b0 !
0"
#1165
b1000000000 !
1"
#1170
b0 !
0"
#1175
b10000000000 !
1"
#1180
b0 !
0"
#1185
b100000000000 !
1"
#1190
b0 !
0"
#1195
b1000000000000 !
1"
#1200
b0 !
0"
#1205
b10000000000000 !
1"
#1210
b0 !
0"
#1215
b100000000000000 !
1"
#1220
b0 !
0"
#1225
b1000000000000000 !
1"
#1230
b0 !
0"
#1235
b10000000000000000 !
1"
#1240
b0 !
0"
#1245
b100000000000000000 !
1"
#1250
b0 !
0"
#1255
b1000000000000000000 !
1"
#1260
b0 !
0"
#1265
b10000000000000000000 !
1"
#1270
b0 !
0"
#1275
b100000000000000000000 !
1"
#1280
b0 !
0"
#1285
b1000000000000000000000 !
1"
#1290
b0 !
0"
#1295
b10000000000000000000000 !
1"
#1300
b0 !
0"
#1305
b100000000000000000000000 !
1"
#1310
b0 !
0"
#1315
b1000000000000000000000000 !
1"
#1320
b0 !
0"
#1325
b10000000000000000000000000 !
1"
#1330
b0 !
0"
#1335
b100000000000000000000000000 !
1"
#1340
b0 !
0"
#1345
b1000000000000000000000000000 !
1"
#1350
b0 !
0"
#1355
b10000000000000000000000000000 !
1"
#1360
b0 !
0"
#1365
b100000000000000000000000000000 !
1"
#1370
b0 !
0"
#1375
b1000000000000000000000000000000 !
1"
#1380
b0 !
0"
#1385
b10000000000000000000000000000000 !
1"
#1390
b0 !
0"
#1395
b100000000000000000000000000000000 !
1"
#1400
b0 !
0"
#1405
b1000000000000000000000000000000000 !
1"
#1410
b0 !
0"
#1415
b10000000000000000000000000000000000 !
1"
#1420
b0 !
0"
#1425
b100000000000000000000000000000000000 !
1"
#1430
b0 !
0"
#1435
b1 !
1"
#1440
b0 !
0"
#1445
b10 !
1"
#1450
b0 !
0"
#1455
b100 !
1"
#1460
b0 !
0"
#1465
b1000 !
1"
#1470
b0 !
0"
#1475
b10000 !
1"
#1480
b0 !
0"
#1485
b100000 !
1"
#1490
b0 !
0"
#1495
b1000000 !
1"
#1500
b0 !
0"
#1505
b10000000 !
1"
#1510
b0 !
0"
#1515
b100000000 !
1"
#1520
b0 !
0"
#1525
b1000000000 !
1"
#1530
b0 !
0"
#1535
b10000000000 !
1"
#1540
b0 !
0"
#1545
b100000000000 !
1"
#1550
b0 !
0"
#1555
b1000000000000 !
1"
#1560
b0 !
0"
#1565
b10000000000000 !
1"
#1570
b0 !
0"
#1575
b100000000000000 !
1"
#1580
b0 !
0"
#1585
b1000000000000000 !
1"
#1590
b0 !
0"
#1595
b10000000000000000 !
1"
#1600
b0 !
0"
#1605
b100000000000000000 !
1"
#1610
b0 !
0"
#1615
b1000000000000000000 !
1"
#1620
b0 !
0"
#1625
b10000000000000000000 !
1"
#1630
b0 !
0"
#1635
b100000000000000000000 !
1"
#1640
b0 !
0"
#1645
b1000000000000000000000 !
1"
#1650
b0 !
0"
#1655
b10000000000000000000000 !
1"
#1660
b0 !
0"
#1665
b100000000000000000000000 !
1"
#1670
b0 !
0"
#1675
b1000000000000000000000000 !
1"
#1680
b0 !
0"
#1685
b10000000000000000000000000 !
1"
#1690
b0 !
0"
#1695
b100000000000000000000000000 !
1"
#1700
b0 !
0"
#1705
b1000000000000000000000000000 !
1"
#1710
b0 !
0"
#1715
b10000000000000000000000000000 !
1"
#1720
b0 !
0"
#1725
b100000000000000000000000000000 !
1"
#1730
b0 !
0"
#1735
b1000000000000000000000000000000 !
1"
#1740
b0 !
0"
#1745
b10000000000000000000000000000000 !
1"
#1750
b0 !
0"
#1755
b100000000000000000000000000000000 !
1"
#1760
b0 !
0"
#1765
b1000000000000000000000000000000000 !
1"
#1770
b0 !
0"
#1775
b10000000000000000000000000000000000 !
1"
#1780
b0 !
0"
#1785
b100000000000000000000000000000000000 !
1"
#1790
b0 !
0"
#1795
b1 !
1"
#1800
b0 !
0"
#1805
b10 !
1"
#1810
b0 !
0"
#1815
b100 !
1"
#1820
b0 !
0"
#1825
b1000 !
1"
#1830
b0 !
0"
#1835
b10000 !
1"
#1840
b0 !
0"
#1845
b100000 !
1"
#1850
b0 !
0"
#1855
b1000000 !
1"
#1860
b0 !
0"
#1865
b10000000 !
1"
#1870
b0 !
0"
#1875
b100000000 !
1"
#1880
b0 !
0"
#1885
b1000000000 !
1"
#1890
b0 !
0"
#1895
b10000000000 !
1"
#1900
b0 !
0"
#1905
b100000000000 !
1"
#1910
b0 !
0"
#1915
b1000000000000 !
1"
#1920
b0 !
0"
#1925
b10000000000000 !
1"
#1930
b0 !
0"
#1935
b100000000000000 !
1"
#1940
b0 !
0"
#1945
b1000000000000000 !
1"
#1950
b0 !
0"
#1955
b10000000000000000 !
1"
#1960
b0 !
0"
#1965
b100000000000000000 !
1"
#1970
b0 !
0"
#1975
b1000000000000000000 !
1"
#1980
b0 !
0"
#1985
b10000000000000000000 !
1"
#1990
b0 !
0"
#1995
b100000000000000000000 !
1"
#2000
b0 !
0"
#2005
b1000000000000000000000 !
1"
#2010
b0 !
0"
#2015
b10000000000000000000000 !
1"
#2020
b0 !
0"
#2025
b100000000000000000000000 !
1"
#2030
b0 !
0"
#2035
b1000000000000000000000000 !
1"
#2040
b0 !
0"
#2045
b10000000000000000000000000 !
1"
#2050
b0 !
0"
#2055
b100000000000000000000000000 !
1"
#2060
b0 !
0"
#2065
b1000000000000000000000000000 !
1"
#2070
b0 !
0"
#2075
b10000000000000000000000000000 !
1"
#2080
b0 !
0"
#2085
b100000000000000000000000000000 !
1"
#2090
b0 !
0"
#2095
b1000000000000000000000000000000 !
1"
#2100
b0 !
0"
