test/edsac/misc/digit_pulse_generator.vcd
$date
	Thu Jun  8 02:07:31 2017
$end
$version
	Icarus Verilog
$end
$timescale
	1s
$end
$scope module digit_pulse_generator_tb $end
$var wire 36 ! digit_pulse [35:0] $end
$var reg 1 " clk $end
$upscope $end
$enddefinitions $end
#0
$dumpvars
0"
b0 !
$end
#5
b1 !
1"
#10
b0 !
0"
#15
b10 !
1"
#20
b0 !
0"
#25
b100 !
1"
#30
b0 !
0"
#35
b1000 !
1"
#40
b0 !
0"
#45
b10000 !
1"
#50
b0 !
0"
#55
b100000 !
1"
#60
b0 !
0"
#65
b1000000 !
1"
#70
b0 !
0"
#75
b10000000 !
1"
#80
b0 !
0"
#85
b100000000 !
1"
#90
b0 !
0"
#95
b1000000000 !
1"
#100
b0 !
0"
#105
b10000000000 !
1"
#110
b0 !
0"
#115
b100000000000 !
1"
#120
b0 !
0"
#125
b1000000000000 !
1"
#130
b0 !
0"
#135
b10000000000000 !
1"
#140
b0 !
0"
#145
b100000000000000 !
1"
#150
b0 !
0"
#155
b1000000000000000 !
1"
#160
b0 !
0"
#165
b10000000000000000 !
1"
#170
b0 !
0"
#175
b100000000000000000 !
1"
#180
b0 !
0"
#185
b1000000000000000000 !
1"
#190
b0 !
0"
#195
b10000000000000000000 !
1"
#200
b0 !
0"
#205
b100000000000000000000 !
1"
#210
b0 !
0"
#215
b1000000000000000000000 !
1"
#220
b0 !
0"
#225
b10000000000000000000000 !
1"
#230
b0 !
0"
#235
b100000000000000000000000 !
1"
#240
b0 !
0"
#245
b1000000000000000000000000 !
1"
#250
b0 !
0"
#255
b10000000000000000000000000 !
1"
#260
b0 !
0"
#265
b100000000000000000000000000 !
1"
#270
b0 !
0"
#275
b1000000000000000000000000000 !
1"
#280
b0 !
0"
#285
b10000000000000000000000000000 !
1"
#290
b0 !
0"
#295
b100000000000000000000000000000 !
1"
#300
b0 !
0"
#305
b1000000000000000000000000000000 !
1"
#310
b0 !
0"
#315
b10000000000000000000000000000000 !
1"
#320
b0 !
0"
#325
b100000000000000000000000000000000 !
1"
#330
b0 !
0"
#335
b1000000000000000000000000000000000 !
1"
#340
b0 !
0"
#345
b10000000000000000000000000000000000 !
1"
#350
b0 !
0"
#355
b100000000000000000000000000000000000 !
1"
#360
b0 !
0"
#365
b1 !
1"
#370
b0 !
0"
#375
b10 !
1"
#380
b0 !
0"
#385
b100 !
1"
#390
b0 !
0"
#395
b1000 !
1"
#400
b0 !
0"
#405
b10000 !
1"
#410
b0 !
0"
#415
b100000 !
1"
#420
b0 !
0"
#425
b1000000 !
1"
#430
b0 !
0"
#435
b10000000 !
1"
#440
b0 !
0"
#445
b100000000 !
1"
#450
b0 !
0"
#455
b1000000000 !
1"
#460
b0 !
0"
#465
b10000000000 !
1"
#470
b0 !
0"
#475
b100000000000 !
1"
#480
b0 !
0"
#485
b1000000000000 !
1"
#490
b0 !
0"
#495
b10000000000000 !
1"
#500
b0 !
0"
#505
b100000000000000 !
1"
#510
b0 !
0"
#515
b1000000000000000 !
1"
#520
b0 !
0"
#525
b10000000000000000 !
1"
#530
b0 !
0"
#535
b100000000000000000 !
1"
#540
b0 !
0"
#545
b1000000000000000000 !
1"
#550
b0 !
0"
#555
b10000000000000000000 !
1"
#560
b0 !
0"
#565
b100000000000000000000 !
1"
#570
b0 !
0"
#575
b1000000000000000000000 !
1"
#580
b0 !
0"
#585
b10000000000000000000000 !
1"
#590
b0 !
0"
#595
b100000000000000000000000 !
1"
#600
b0 !
0"
#605
b1000000000000000000000000 !
1"
#610
b0 !
0"
#615
b10000000000000000000000000 !
1"
#620
b0 !
0"
#625
b100000000000000000000000000 !
1"
#630
b0 !
0"
#635
b1000000000000000000000000000 !
1"
#640
b0 !
0"
#645
b10000000000000000000000000000 !
1"
#650
b0 !
0"
#655
b100000000000000000000000000000 !
1"
#660
b0 !
0"
#665
b1000000000000000000000000000000 !
1"
#670
b0 !
0"
#675
b10000000000000000000000000000000 !
1"
#680
b0 !
0"
#685
b100000000000000000000000000000000 !
1"
#690
b0 !
0"
#695
b1000000000000000000000000000000000 !
1"
#700
b0 !
0"
#705
b10000000000000000000000000000000000 !
1"
#710
b0 !
0"
#715
b100000000000000000000000000000000000 !
1"
#720
b0 !
0"
#725
b1 !
1"
#730
b0 !
0"
#735
b10 !
1"
#740
b0 !
0"
#745
b100 !
1"
#750
b0 !
0"
#755
b1000 !
1"
#760
b0 !
0"
#765
b10000 !
1"
#770
b0 !
0"
#775
b100000 !
1"
#780
b0 !
0"
#785
b1000000 !
1"
#790
b0 !
0"
#795
b10000000 !
1"
#800
b0 !
0"
#805
b100000000 !
1"
#810
b0 !
0"
#815
b1000000000 !
1"
#820
b0 !
0"
#825
b10000000000 !
1"
#830
b0 !
0"
#835
b100000000000 !
1"
#840
b0 !
0"
#845
b1000000000000 !
1"
#850
b0 !
0"
#855
b10000000000000 !
1"
#860
b0 !
0"
#865
b100000000000000 !
1"
#870
b0 !
0"
#875
b1000000000000000 !
1"
#880
b0 !
0"
#885
b10000000000000000 !
1"
#890
b0 !
0"
#895
b100000000000000000 !
1"
#900
b0 !
0"
#905
b1000000000000000000 !
1"
#910
b0 !
0"
#915
b10000000000000000000 !
1"
#920
b0 !
0"
#925
b100000000000000000000 !
1"
#930
b0 !
0"
#935
b1000000000000000000000 !
1"
#940
b0 !
0"
#945
b10000000000000000000000 !
1"
#950
b0 !
0"
#955
b100000000000000000000000 !
1"
#960
b0 !
0"
#965
b1000000000000000000000000 !
1"
#970
b0 !
0"
#975
b10000000000000000000000000 !
1"
#980
b0 !
0"
#985
b100000000000000000000000000 !
1"
#990
b0 !
0"
#995
b1000000000000000000000000000 !
1"
#1000
b0 !
0"
#1005
b10000000000000000000000000000 !
1"
#1010
b0 !
0"
#1015
b100000000000000000000000000000 !
1"
#1020
b0 !
0"
#1025
b1000000000000000000000000000000 !
1"
#1030
b0 !
0"
#1035
b10000000000000000000000000000000 !
1"
#1040
b0 !
0"
#1045
b100000000000000000000000000000000 !
1"
#1050
b0 !
0"
#1055
b1000000000000000000000000000000000 !
1"
#1060
b0 !
0"
#1065
b10000000000000000000000000000000000 !
1"
#1070
b0 !
0"
#1075
b100000000000000000000000000000000000 !
1"
#1080
b0 !
0"
#1085
b1 !
1"
#1090
b0 !
0"
#1095
b10 !
1"
#1100
b0 !
0"
#1105
b100 !
1"
#1110
b0 !
0"
#1115
b1000 !
1"
#1120
b0 !
0"
#1125
b10000 !
1"
#1130
b0 !
0"
#1135
b100000 !
1"
#1140
b0 !
0"
#1145
b1000000 !
1"
#1150
b0 !
0"
#1155
b10000000 !
1"
#1160
b0 !
0"
#1165
b100000000 !
1"
#1170
b0 !
0"
#1175
b1000000000 !
1"
#1180
b0 !
0"
#1185
b10000000000 !
1"
#1190
b0 !
0"
#1195
b100000000000 !
1"
#1200
b0 !
0"
#1205
b1000000000000 !
1"
#1210
b0 !
0"
#1215
b10000000000000 !
1"
#1220
b0 !
0"
#1225
b100000000000000 !
1"
#1230
b0 !
0"
#1235
b1000000000000000 !
1"
#1240
b0 !
0"
#1245
b10000000000000000 !
1"
#1250
b0 !
0"
#1255
b100000000000000000 !
1"
#1260
b0 !
0"
#1265
b1000000000000000000 !
1"
#1270
b0 !
0"
#1275
b10000000000000000000 !
1"
#1280
b0 !
0"
#1285
b100000000000000000000 !
1"
#1290
b0 !
0"
#1295
b1000000000000000000000 !
1"
#1300
b0 !
0"
#1305
b10000000000000000000000 !
1"
#1310
b0 !
0"
#1315
b100000000000000000000000 !
1"
#1320
b0 !
0"
#1325
b1000000000000000000000000 !
1"
#1330
b0 !
0"
#1335
b10000000000000000000000000 !
1"
#1340
b0 !
0"
#1345
b100000000000000000000000000 !
1"
#1350
b0 !
0"
#1355
b1000000000000000000000000000 !
1"
#1360
b0 !
0"
#1365
b10000000000000000000000000000 !
1"
#1370
b0 !
0"
#1375
b100000000000000000000000000000 !
1"
#1380
b0 !
0"
#1385
b1000000000000000000000000000000 !
1"
#1390
b0 !
0"
#1395
b10000000000000000000000000000000 !
1"
#1400
b0 !
0"
#1405
b100000000000000000000000000000000 !
1"
#1410
b0 !
0"
#1415
b1000000000000000000000000000000000 !
1"
#1420
b0 !
0"
#1425
b10000000000000000000000000000000000 !
1"
#1430
b0 !
0"
#1435
b100000000000000000000000000000000000 !
1"
#1440
b0 !
0"
#1445
b1 !
1"
#1450
b0 !
0"
#1455
b10 !
1"
#1460
b0 !
0"
#1465
b100 !
1"
#1470
b0 !
0"
#1475
b1000 !
1"
#1480
b0 !
0"
#1485
b10000 !
1"
#1490
b0 !
0"
#1495
b100000 !
1"
#1500
b0 !
0"
#1505
b1000000 !
1"
#1510
b0 !
0"
#1515
b10000000 !
1"
#1520
b0 !
0"
#1525
b100000000 !
1"
#1530
b0 !
0"
#1535
b1000000000 !
1"
#1540
b0 !
0"
#1545
b10000000000 !
1"
#1550
b0 !
0"
#1555
b100000000000 !
1"
#1560
b0 !
0"
#1565
b1000000000000 !
1"
#1570
b0 !
0"
#1575
b10000000000000 !
1"
#1580
b0 !
0"
#1585
b100000000000000 !
1"
#1590
b0 !
0"
#1595
b1000000000000000 !
1"
#1600
b0 !
0"
#1605
b10000000000000000 !
1"
#1610
b0 !
0"
#1615
b100000000000000000 !
1"
#1620
b0 !
0"
#1625
b1000000000000000000 !
1"
#1630
b0 !
0"
#1635
b10000000000000000000 !
1"
#1640
b0 !
0"
#1645
b100000000000000000000 !
1"
#1650
b0 !
0"
#1655
b1000000000000000000000 !
1"
#1660
b0 !
0"
#1665
b10000000000000000000000 !
1"
#1670
b0 !
0"
#1675
b100000000000000000000000 !
1"
#1680
b0 !
0"
#1685
b1000000000000000000000000 !
1"
#1690
b0 !
0"
#1695
b10000000000000000000000000 !
1"
#1700
b0 !
0"
#1705
b100000000000000000000000000 !
1"
#1710
b0 !
0"
#1715
b1000000000000000000000000000 !
1"
#1720
b0 !
0"
#1725
b10000000000000000000000000000 !
1"
#1730
b0 !
0"
#1735
b100000000000000000000000000000 !
1"
#1740
b0 !
0"
#1745
b1000000000000000000000000000000 !
1"
#1750
b0 !
0"
#1755
b10000000000000000000000000000000 !
1"
#1760
b0 !
0"
#1765
b100000000000000000000000000000000 !
1"
#1770
b0 !
0"
#1775
b1000000000000000000000000000000000 !
1"
#1780
b0 !
0"
#1785
b10000000000000000000000000000000000 !
1"
#1790
b0 !
0"
#1795
b100000000000000000000000000000000000 !
1"
#1800
b0 !
0"
#1805
b1 !
1"
#1810
b0 !
0"
#1815
b10 !
1"
#1820
b0 !
0"
#1825
b100 !
1"
#1830
b0 !
0"
#1835
b1000 !
1"
#1840
b0 !
0"
#1845
b10000 !
1"
#1850
b0 !
0"
#1855
b100000 !
1"
#1860
b0 !
0"
#1865
b1000000 !
1"
#1870
b0 !
0"
#1875
b10000000 !
1"
#1880
b0 !
0"
#1885
b100000000 !
1"
#1890
b0 !
0"
#1895
b1000000000 !
1"
#1900
b0 !
0"
#1905
b10000000000 !
1"
#1910
b0 !
0"
#1915
b100000000000 !
1"
#1920
b0 !
0"
#1925
b1000000000000 !
1"
#1930
b0 !
0"
#1935
b10000000000000 !
1"
#1940
b0 !
0"
#1945
b100000000000000 !
1"
#1950
b0 !
0"
#1955
b1000000000000000 !
1"
#1960
b0 !
0"
#1965
b10000000000000000 !
1"
#1970
b0 !
0"
#1975
b100000000000000000 !
1"
#1980
b0 !
0"
#1985
b1000000000000000000 !
1"
#1990
b0 !
0"
#1995
b10000000000000000000 !
1"
#2000
b0 !
0"
#2005
b100000000000000000000 !
1"
#2010
b0 !
0"
#2015
b1000000000000000000000 !
1"
#2020
b0 !
0"
#2025
b10000000000000000000000 !
1"
#2030
b0 !
0"
#2035
b100000000000000000000000 !
1"
#2040
b0 !
0"
#2045
b1000000000000000000000000 !
1"
#2050
b0 !
0"
#2055
b10000000000000000000000000 !
1"
#2060
b0 !
0"
#2065
b100000000000000000000000000 !
1"
#2070
b0 !
0"
#2075
b1000000000000000000000000000 !
1"
#2080
b0 !
0"
#2085
b10000000000000000000000000000 !
1"
#2090
b0 !
0"
#2095
b100000000000000000000000000000 !
1"
#2100
b0 !
0"
